<?xml version="1.0" standalone="no"?>
<!DOCTYPE svg PUBLIC "-//W3C//DTD SVG 1.1//EN" "http://www.w3.org/Graphics/SVG/1.1/DTD/svg11.dtd" >
<!--
2017-11-8: Created with FontForge (http://fontforge.org)
-->
<svg xmlns="http://www.w3.org/2000/svg" xmlns:xlink="http://www.w3.org/1999/xlink" version="1.1">
<metadata>
Created by FontForge 20160405 at Wed Nov  8 08:08:47 2017
 By Apache
Copyright (c) 2017, Apache
</metadata>
<defs>
<font id="Flaticon" horiz-adv-x="512" >
  <font-face 
    font-family="Flaticon"
    font-weight="400"
    font-stretch="normal"
    units-per-em="512"
    panose-1="2 0 5 3 0 0 0 0 0 0"
    ascent="448"
    descent="-64"
    bbox="-0.00499226 -64.0075 512.005 448.022"
    underline-thickness="25.6"
    underline-position="-51.2"
    unicode-range="U+0020-F117"
  />
    <missing-glyph />
    <glyph glyph-name="space" unicode=" " horiz-adv-x="200" 
 />
    <glyph glyph-name="uniF108" unicode="&#xf108;" 
d="M329.391 32.1348c3.17285 0 6.34668 0.296875 9.47266 0.484375v-62.042c0 -19.0078 -15.5537 -34.5771 -34.5928 -34.5771h-228.254c-19.0234 0 -34.5928 15.5693 -34.5928 34.5771v442.861c0 19.0234 15.5693 34.5615 34.5928 34.5615h228.254
c19.0391 0 34.5928 -15.5381 34.5771 -34.5615v-54.2891c-3.12598 0.140625 -6.26758 0.453125 -9.44141 0.453125c-4.9707 0 -9.76953 -0.3125 -14.6152 -0.734375v34.2959h-249.31v-393.184h249.31v32.8887c4.83008 -0.421875 9.66016 -0.734375 14.5996 -0.734375z
M153.644 423.067c-2.3291 0 -4.18945 -1.87598 -4.18945 -4.23633c0 -2.3291 1.87598 -4.17383 4.18945 -4.17383h73.0156c2.3291 0 4.18945 1.86035 4.18945 4.17383c0 2.36035 -1.87598 4.23633 -4.18945 4.23633h-73.0156zM190.159 -46.7109
c9.53516 0 17.3047 7.75293 17.3047 17.2725c0 9.56641 -7.75391 17.2578 -17.3047 17.2578s-17.2725 -7.70703 -17.2725 -17.2578c0 -9.51953 7.72168 -17.2725 17.2725 -17.2725zM430.73 256.137c0.813477 -1 1.79785 -1.65723 2.86133 -2.0166l-4.73633 -2.93848
l-8.20703 10.5986l1.31348 1.84375c2.43848 -3.11035 8.76855 -7.4873 8.76855 -7.4873zM329.391 337.03c78.002 0 141.186 -63.2295 141.17 -141.169c0 -77.9863 -63.1992 -141.17 -141.17 -141.17s-141.201 63.1836 -141.201 141.17
c0 77.9395 63.2305 141.169 141.201 141.169zM246.59 293.34c-3.64258 -3.15723 -7.19043 -6.50293 -10.5049 -10.1133c1.21973 0.625 2.43848 1.15625 3.6582 1.50098c0 0 11.7861 1.1875 6.84668 8.6123zM259.329 169.818c0 0 4.39258 11.8486 -3.81348 10.6299
c0 0 -1.8916 6.20605 -11.333 6.20605c0 0 -5.69043 6.18945 -10.7549 6.18945c0 0 -1.87598 17.3516 -11.333 13.6152c0 0 -1.28125 6.8623 -5.06445 6.22168c0 0 -2.46973 6.7998 -6.89355 4.93945l-5.06445 3.11133s-0.453125 -0.797852 -1.18848 -2.03223
c-1.21875 -7.12793 -1.8916 -14.3662 -1.8916 -21.8223c0 -36.0469 15.1475 -68.5918 39.3613 -91.6797c0.03125 1.0625 0.3125 2.1416 0.953125 3.11035c0 0 2.50098 5.01855 -0.671875 9.34766c0 0 3.17285 4.4082 3.17285 9.98926c0 0 -3.17285 9.92578 5.0332 11.1299
c0 0 11.3486 0 5.6748 19.8828c0 0 -0.609375 5.62793 3.81348 11.1611zM262.769 299.358l0.359375 5.8623c-5.67383 -3.4082 -11.0518 -7.31641 -16.085 -11.5527c2.90723 -0.328125 14.9131 -1.17188 15.7256 5.69043zM437.015 236.3
c7.2998 6.58105 -0.796875 15.6475 -2.67285 17.6016c2.37598 -0.59375 4.9707 0.125 6.8623 0.921875c-19.2578 37.2979 -56.5088 63.8555 -100.324 68.0762c-10.1289 -9.87891 2.29785 -13.9902 2.29785 -13.9902c4.42383 -3.06348 13.8496 2.53223 13.8496 2.53223
c3.81445 -4.36133 -10.7383 -10.6133 -10.7383 -10.6133c-8.17578 -0.579102 -14.4756 -4.95605 -14.4756 -4.95605c-3.78223 5.59668 -7.56543 1.28223 -7.56543 1.28223c-3.09473 -3.70508 4.42383 -5.62695 4.42383 -5.62695
c5.01758 -1.23535 3.78223 -4.36133 1.86035 -6.19043c-1.8916 -1.86035 -10.0674 0 -10.0674 0c-4.42383 -2.50098 -1.28125 -11.1924 -1.28125 -11.1924h3.81348c12.584 -3.7207 13.2559 5.5957 13.2559 5.5957c3.75195 0 5.0332 6.19043 5.0332 6.19043
c3.2207 -3.11035 10.7393 1.86035 10.7393 1.86035c0.640625 -2.50098 4.37695 -6.19043 4.37695 -6.19043c5.67383 -1.86035 6.9248 -4.36133 6.9248 -4.36133c-5.6748 -1.23438 -0.640625 -3.7041 -0.640625 -3.7041c7.59668 3.1416 1.8916 7.44043 1.8916 7.44043
c-14.4131 6.87793 -8.17578 8.73828 -8.17578 8.73828c2.56348 -4.36133 12.6611 -6.19043 12.6611 -6.19043c1.25098 -8.09766 5.01855 -9.34766 5.01855 -9.34766c4.39258 -1.86035 5.64258 1.86035 5.64258 1.86035c-4.39258 1.23438 -5.06445 4.93945 -5.06445 4.93945
c-1.21973 3.75195 4.42383 1.25 4.42383 1.25c5.06445 -7.45605 15.7881 -6.83105 15.7881 -6.83105c6.89355 0.610352 5.0332 -11.8174 5.0332 -11.8174c-7.5498 -5.00195 -22.1035 3.73633 -22.1035 3.73633c1.28223 -4.36133 -4.36133 -4.93945 -4.36133 -4.93945
c-5.7207 6.76855 -14.5059 3.7041 -14.5059 3.7041c1.8916 3.11133 -1.28223 8.06641 -1.28223 8.06641c-5.01758 1.25 -13.1924 -1.25098 -13.1924 -1.25098c-6.31543 -2.42285 -18.3203 -3.06348 -18.3203 -3.06348c-5.65918 0 -9.44141 -11.208 -9.44141 -11.208
c-12.6152 -5.56445 -13.8662 -16.7568 -13.8662 -16.7568c0 -6.83105 -1.25 -13.6465 -1.25 -13.6465c-4.45508 -6.81543 8.14453 -14.2871 8.14453 -14.2871c7.59668 -14.3037 17.0381 -8.11328 17.0381 -8.11328c7.5498 -3.09473 23.9629 3.09473 23.9629 3.09473
c1.92285 -6.1582 10.708 -4.3291 10.708 -4.3291c3.12598 -1.87598 1.87598 -8.08203 1.87598 -8.08203c-4.37695 -7.44043 3.7832 -14.2871 3.7832 -14.2871c12.583 -14.2725 4.3457 -17.9922 4.3457 -17.9922c-8.76953 -8.66016 -3.06445 -16.1475 -3.06445 -16.1475
c6.2373 -13.6777 6.2373 -25.3389 6.2373 -25.3389c21.4307 -3.08008 28.9971 12.9424 28.9971 12.9424c6.9248 0 6.9248 6.19043 6.9248 6.19043c0 7.45605 4.42383 10.5361 4.42383 10.5361c10.0508 6.83105 8.19043 20.5088 8.19043 20.5088
c-1.25 8.01855 1.86035 15.5059 1.86035 15.5059c11.9893 13.6465 11.3799 34.1553 11.3799 34.1553c-5.0332 -2.48535 -8.17578 -0.59375 -8.17578 -0.59375c-11.3486 11.1924 -25.2139 35.4219 -25.2139 35.4219c13.2402 -5.58105 23.9639 -31.6699 23.9639 -31.6699
c7.58105 3.73535 10.0508 10.5664 10.0508 10.5664z" />
    <glyph glyph-name="uniF113" unicode="&#xf113;" 
d="M509.421 253.634c-0.636719 -3.21582 -0.666992 -6.53613 -1.91211 -9.57422c-7.38086 -17.8154 -21.1787 -32.5625 -31.3613 -48.9844c-13.1172 -20.957 -124.558 24.2031 -110.196 52.1855c5.41016 10.3457 26.501 38.9209 28.1016 50.4072
c1.45215 10.2412 -12.124 18.2744 -24.6631 19.3125c-33.0654 2.66797 -75.3506 0.251953 -110.463 0.0292969v-0.0292969c-0.933594 0 -1.9707 0 -2.91895 0.0146484c-0.963867 -0.0146484 -2.00098 -0.0146484 -2.91992 -0.0146484v0.0292969
c-35.127 0.222656 -77.3818 2.63867 -110.463 -0.0292969c-12.5391 -1.03809 -26.1152 -9.07129 -24.6631 -19.3271c1.58594 -11.4863 22.6914 -40.0615 28.1016 -50.4072c14.3916 -27.9824 -97.0938 -73.1426 -110.211 -52.1855
c-10.1973 16.4072 -23.9658 31.1689 -31.3467 48.9844c-1.24512 3.03809 -1.29004 6.37305 -1.92676 9.57422c-16.3477 73.0693 46.6719 147.62 141.558 155.253c36.2529 2.94922 72.5791 4.60938 108.951 5.24609v0.208008
c0.977539 -0.0292969 1.94141 -0.0888672 2.91992 -0.103516c0.977539 0.0146484 1.94141 0.0742188 2.91895 0.103516v-0.192383c36.3574 -0.652344 72.6836 -2.29785 108.937 -5.24707c94.9004 -7.63281 157.921 -82.2139 141.558 -155.253zM444.267 1.52441
c1.02344 -17.5332 -10.4189 -31.8359 -25.5371 -31.8359h-325.459c-15.0732 0 -26.5605 14.332 -25.5225 31.8359l9.5 159.817c34.4893 8.07812 78.5674 29.1836 94.5596 55.3877c8.9082 14.5986 9.85645 31.0352 2.53516 45.2783
c-1.85352 3.55762 -5.32129 9.11523 -9.30859 15.3105l-0.0146484 0.0302734c-0.118164 0.28125 -0.118164 0.28125 -0.207031 0.473633h177.158c-0.0888672 -0.251953 -0.118164 -0.295898 -0.266602 -0.652344c-2.22363 -5.34961 -2.97949 -9.45605 -2.56445 -12.5527
c-0.503906 -0.904297 -1.21484 -2.0459 -1.60059 -2.78711c-7.23242 -14.0508 -6.28418 -30.502 2.62305 -45.0859c15.9922 -26.2334 60.041 -47.2949 94.5303 -55.3721zM318.257 167.404c-34.1191 34.1035 -89.5654 34.1035 -123.698 0
c-34.1035 -34.1035 -34.1035 -89.5801 0 -123.684c30.873 -30.8721 79.2197 -33.6885 113.397 -8.68555l-21.3877 21.3574c-22.2607 -13.665 -51.7852 -10.9971 -71.0527 8.28516c-22.543 22.543 -22.543 59.2109 0.0146484 81.7695c22.543 22.543 59.2109 22.543 81.7695 0
c19.1787 -19.1787 21.8906 -48.4951 8.41797 -70.7275l21.417 -21.417c24.8105 34.1787 21.8906 82.3174 -8.87793 113.102z" />
    <glyph glyph-name="uniF101" unicode="&#xf101;" 
d="M366.987 177.664c53.5986 -10.0059 94.1787 -56.9346 94.208 -113.459v-128.205h-204.801h-0.774414h-204.801v128.205c0 56.5244 40.5947 103.453 94.1934 113.459c29.374 -26.7119 68.2422 -43.1982 110.987 -43.2861
c42.7598 0.0878906 81.6133 16.5742 110.987 43.2861zM149.87 197.852c-47.5137 3.29102 -89.6445 -45.4365 -89.6445 -45.4365s-3.34961 23.4639 -3.34961 51.6973c-1.63867 140.814 98.1572 211.236 129.755 226.875l-0.350586 -0.702148
c20.6406 11.1611 44.2363 17.5098 69.3398 17.6709v0.0439453c0.116211 0 0.248047 -0.0439453 0.379883 -0.0439453c0.146484 0 0.27832 0.0439453 0.394531 0.0439453v-0.0439453c25.1182 -0.161133 48.7139 -6.50977 69.3398 -17.6709l-0.307617 0.702148
c31.5986 -15.668 131.351 -86.0605 129.712 -226.875c0 -28.2334 -3.34961 -51.6973 -3.34961 -51.6973s-42.1455 48.7275 -89.6592 45.4365c-26.7695 -27.8525 -64.1895 -45.2754 -105.75 -45.5244v-0.0439453c-0.101562 0 -0.233398 0.0439453 -0.379883 0.0439453
c-0.117188 0 -0.234375 -0.0439453 -0.379883 -0.0439453v0.0439453c-41.5605 0.234375 -78.9951 17.6719 -105.75 45.5244zM254.83 399.652c-4.93066 -32.0654 -84.7295 -81.1445 -118.594 -106.452c6.64062 -39.3652 41.7207 -71.124 87.3613 -80.5596
c-0.161133 0.628906 -0.365234 1.2002 -0.365234 1.8291c0 7.02148 11.7314 12.7412 26.2139 12.7412s26.2295 -5.71973 26.2295 -12.7412c0 -6.68555 -10.6504 -12.083 -24.1377 -12.625h-0.117188c-0.658203 -0.0292969 -1.30176 -0.0878906 -1.97461 -0.0878906
c-2.29688 0 -4.47656 0.19043 -6.6123 0.454102c-39.585 2.25293 -74.123 19.8213 -95.29 45.5674c19.4707 -40.3887 60.6787 -68.373 108.456 -68.5781c64.0879 0.262695 116.414 50.542 120.188 113.679c-33.6016 25.2197 -114.074 74.5762 -119.019 106.773
l-1.16992 0.892578z" />
    <glyph glyph-name="uniF117" unicode="&#xf117;" 
d="M441.828 189.319h-26.1123c0 85.2188 -69.3096 154.513 -154.48 154.513l-0.015625 26.0811c99.6064 0.046875 180.608 -80.9863 180.608 -180.594zM261.22 324.867c74.7637 0 135.516 -60.7988 135.516 -135.516l-26.1133 -0.015625
c0.03125 60.3438 -49.0273 109.449 -109.418 109.449zM256 448c141.158 0 256 -114.826 256 -256.078c0 -52.9932 -25.7363 -120.657 -83.2588 -152.334c-33.3232 -18.2754 -89.8896 -32.0215 -163.604 17.21c-35.0146 23.3535 -56.5664 49.1689 -74.748 66.6924
l-0.09375 -0.0947266c-0.455078 0.517578 -0.90918 1.00391 -1.37988 1.48926c-0.500977 0.470703 -1.00293 0.924805 -1.48926 1.41113l0.0947266 0.0625c-17.5234 18.1816 -34.5449 36.8018 -50.8613 56.0488c-42.8213 50.3135 -37.1631 117.836 6.70801 145.642
c1.89648 1.25391 3.52637 2.86816 5.62695 3.76172c12.3662 5.10938 26.3945 5.61133 39.4355 8.66699c16.708 3.82422 49.2471 -73.04 28.4629 -79.6855c-7.71094 -2.44531 -32.0996 -6.08105 -38.5254 -10.9561c-5.7373 -4.30957 -3.00977 -14.9365 2.63281 -21.582
c14.9053 -17.5391 36.8486 -37.0371 54.1846 -54.2158v0.03125c0.485352 -0.470703 0.97168 -0.987305 1.45703 -1.44238c0.470703 -0.485352 1.00293 -0.987305 1.44238 -1.44141l-0.03125 -0.015625c17.1465 -17.3359 36.6924 -39.2637 54.2002 -54.1846
c6.64551 -5.64258 17.2725 -8.37012 21.582 -2.63379c4.84375 6.42676 8.54297 30.8154 10.9561 38.5264c6.67773 20.8311 83.4941 -11.7549 79.6855 -28.4316c-3.10352 -13.0723 -3.55762 -27.1006 -8.69824 -39.4668
c-0.81543 -2.05371 -2.47656 -3.73047 -3.73047 -5.62695c-6.39551 -10.0625 -15 -18.0566 -24.9375 -23.9648c16.5518 0.15625 32.0684 4.05859 46.3789 11.9277c39.3887 21.7236 66.9111 72.9609 66.9111 124.669c0 123.744 -100.642 224.433 -224.401 224.433
s-224.417 -100.673 -224.417 -224.433c0 -123.697 100.657 -224.386 224.417 -224.386c8.73047 0 15.7832 -7.06934 15.7832 -15.8311c0 -8.71484 -7.05273 -15.7676 -15.7832 -15.7676c-141.174 0 -256 114.826 -256 255.984c0 141.189 114.826 256.016 256 256.016z" />
    <glyph glyph-name="uniF114" unicode="&#xf114;" 
d="M130.897 405.255l-11.0635 11.0342c42.248 42.2617 111.011 42.2764 153.258 0.0146484l-11.0625 -11.0781c-36.1602 36.1602 -94.9873 36.1602 -131.132 0.0292969zM253.966 397.163l-11.0479 -11.0488c-25.6094 25.5947 -67.2998 25.5947 -92.8799 -0.0146484
l-11.0771 11.0488c31.6963 31.7109 83.2793 31.7109 115.005 0.0146484zM169.809 366.345l-11.0928 11.0625c20.8379 20.8389 54.7002 20.8389 75.5098 0.0146484l-11.0635 -11.0771c-14.707 14.7217 -38.6621 14.7217 -53.3535 0zM302.081 220.931l26.4287 26.457
c7.87207 7.8291 20.5596 7.8291 28.3447 0l1.56641 -1.55078c7.82812 -7.8291 7.82812 -20.5312 0 -28.3594l-3.46875 -3.49805l-26.4863 -26.457c-7.8584 -7.8291 -20.502 -7.8291 -28.3311 0.0146484l-1.53613 1.53613c-7.8584 7.8291 -7.8584 20.5166 -0.0292969 28.3457
zM360.382 208.507l3.45312 3.49707c7.87305 7.84375 20.5312 7.7998 28.3457 -0.0146484l1.53613 -1.53613c7.7998 -7.87305 7.8291 -20.5312 -0.0292969 -28.3604l-3.46777 -3.51172l-22.9316 -22.9014l-3.51172 -3.52734c-7.84375 -7.81348 -20.5166 -7.81348 -28.3457 0
l-1.52148 1.55176c-7.78516 7.8291 -7.78516 20.5303 0 28.3301zM447.759 79.8486l-118.239 -118.255c-9.86328 -9.8623 -26.0039 -9.8623 -35.8379 -0.0146484l-20.3555 20.3701l-21.541 -21.5107s-32.0615 -31.8428 -75.5088 -22.8438
c-0.336914 0.0732422 -0.6875 0.117188 -1.00977 0.19043c-1.8877 0.410156 -3.81934 0.96582 -5.73633 1.53711c-1.56641 0.467773 -3.20508 1.02344 -4.7998 1.60938c-1.56641 0.584961 -3.14648 1.1123 -4.74121 1.8291
c-3.20508 1.39062 -6.41016 2.9707 -9.67285 4.87305c-0.951172 0.570312 -1.96094 1.27344 -2.94141 1.8877c-2.73633 1.68262 -5.4873 3.59961 -8.25391 5.70703c-1.06738 0.819336 -2.15039 1.63867 -3.2627 2.53125c-3.6875 2.9707 -7.38965 6.17578 -11.1221 9.92188
c-41.8662 41.8672 -40.0371 79.168 -32.208 98.001c0.0292969 0.0585938 6.40918 23.5605 14.1504 51.5693c2.18066 7.95996 4.50684 16.2432 6.77539 24.54l-49.2129 49.2275c-9.86328 9.84863 -9.86328 25.9746 0 35.8525l118.239 118.225
c9.86328 9.86328 26.0039 9.86328 35.8379 0l68.6025 -68.5732l6.2334 6.24902c7.8291 7.8291 20.5166 7.7998 28.3604 0l1.53613 -1.56641c7.8291 -7.81445 7.8291 -20.4863 0 -28.3301l-3.49707 -3.52734l-22.9014 -22.916l-3.54199 -3.51172
c-7.78418 -7.7998 -20.4277 -7.84375 -28.3154 0l-1.52246 1.52148c-7.81348 7.84375 -7.81348 20.5312 0 28.3604l3.4834 3.51172v0.0146484l7.72656 7.72656l-58.0957 58.0811l-129.186 -129.142l31.7256 -31.6963c5.40039 19.3164 10.2295 36.1592 12.7754 44.1787
c8.03418 25.4482 28.3164 24.5117 37.96 9.0293c7.50684 -11.9268 1.68262 -39.1016 -2.20996 -69.8613c-0.775391 -6.07227 -2.80957 -16.0527 -5.18066 -26.6475l128.674 -128.658l129.112 129.141l-9.58594 9.58496l-11.2676 -11.2676
c-7.81445 -7.8291 -20.4873 -7.7998 -28.3301 0l-1.56641 1.56641c-7.81445 7.79883 -7.81445 20.457 0 28.3301l3.5127 3.51172l22.9307 22.917l3.46777 3.51172c7.8291 7.81445 20.4873 7.8291 28.3604 0.0146484l1.52148 -1.53613
c7.8584 -7.8291 7.8291 -20.502 0 -28.3604l-3.46777 -3.48242l0.0292969 -0.0292969l-2.75098 -2.72266l24.833 -24.833c9.86328 -9.84766 9.86328 -25.96 0.0146484 -35.8369zM117.376 249.803c1.1709 -1.2002 3.14648 -1.1709 4.31738 0.0146484l37.8418 37.8428
c1.2002 1.18457 1.2002 3.13086 0 4.31641c-1.2002 1.2002 -3.14551 1.2002 -4.31641 0.0146484l-37.8428 -37.8428c-1.2002 -1.19922 -1.2002 -3.13086 0 -4.3457zM379.669 47.5957c-4.94629 4.96094 -12.9805 4.96094 -17.9268 0s-4.91699 -12.9795 0 -17.9258
c4.97559 -4.96094 12.9805 -4.96094 17.9268 -0.0146484c4.93066 4.96094 4.93066 12.9648 0 17.9404z" />
    <glyph glyph-name="uniF104" unicode="&#xf104;" 
d="M470.576 195.768c-0.046875 -77.7676 -63.3711 -141.107 -141.17 -141.107v0v0v0c-77.8613 0 -141.201 63.3398 -141.201 141.17v0.015625v0v0c0 77.8301 63.3398 141.185 141.201 141.185v0v0v0c77.7988 0 141.154 -63.292 141.17 -141.122v-0.0625v-0.078125z
M329.406 69.6504c14.459 0 30.1221 27.5596 37.5635 71.2812c-12.3652 -1.31348 -25.042 -1.98535 -37.5635 -1.98535c-12.5205 0 -25.1982 0.671875 -37.5625 1.98535c7.44043 -43.7217 23.1035 -71.2812 37.5625 -71.2812v0zM329.406 153.905
c14.1309 0 27.4336 0.782227 39.7354 2.25098c1.43848 12.2871 2.23535 25.5898 2.23535 39.7207c0 14.1152 -0.796875 27.4336 -2.23535 39.7197c-12.3018 1.43848 -25.6045 2.25098 -39.7354 2.25098c-14.1152 0 -27.4336 -0.8125 -39.7354 -2.25098
c-1.42285 -12.2861 -2.23535 -25.6045 -2.23535 -39.7197c0 -14.1309 0.8125 -27.4336 2.23535 -39.7207c12.3018 -1.45312 25.6201 -2.25098 39.7354 -2.25098zM203.196 195.846v0c0 -14.4756 27.543 -30.1699 71.2646 -37.5322
c-1.29688 12.334 -1.98535 24.9795 -1.98535 37.5322c0 12.5049 0.688477 25.1982 1.98535 37.5312c-43.7217 -7.39355 -71.2646 -23.0723 -71.2646 -37.5312zM329.406 322.04c-14.459 0 -30.1221 -27.5273 -37.5625 -71.2646
c12.3643 1.3125 25.042 1.98535 37.5625 1.98535c12.5215 0 25.1982 -0.672852 37.5635 -1.98535c-7.44141 43.7217 -23.1045 71.2646 -37.5635 71.2646v0zM384.336 233.393c1.31348 -12.3486 1.98535 -25.0264 1.98535 -37.5312
c0 -12.5215 -0.671875 -25.1982 -1.98535 -37.5322c43.6592 7.37793 71.2178 23.0098 71.2646 37.4854v0.046875v0.03125c-0.046875 14.4434 -27.5742 30.0752 -71.2646 37.5zM452.146 225.045c-10.958 46.1611 -47.3643 82.5674 -93.5557 93.5869
c11.333 -16.21 19.3359 -41.5488 23.7285 -69.8574c28.2783 -4.4082 53.6484 -12.3965 69.8271 -23.7295zM300.206 318.632c-46.1758 -11.0195 -82.582 -47.4258 -93.5713 -93.6025c16.1943 11.3486 41.5342 19.3525 69.8271 23.7451
c4.42383 28.3086 12.3955 53.6475 23.7441 69.8574zM206.635 166.646c10.9893 -46.1602 47.3955 -82.5508 93.5713 -93.6025c-11.3486 16.21 -19.3359 41.5332 -23.7441 69.8584c-28.293 4.43848 -53.6328 12.3955 -69.8271 23.7441zM358.606 73.1211
c46.1758 10.9736 82.582 47.3643 93.5557 93.5713c-16.1631 -11.3486 -41.5332 -19.3525 -69.8271 -23.7441c-4.4082 -28.3252 -12.3643 -53.6641 -23.7285 -69.8271zM329.406 32.1348c3.17383 0 6.33105 0.296875 9.45703 0.484375v-62.042
c0 -19.0078 -15.5537 -34.5771 -34.5928 -34.5771h-228.254c-19.0234 0 -34.5928 15.5693 -34.5928 34.5771v442.861c0 19.0234 15.5693 34.5615 34.5928 34.5615h228.238c19.0391 0 34.5928 -15.5381 34.5928 -34.5615v-54.2891
c-3.12598 0.140625 -6.26758 0.453125 -9.44141 0.453125c-4.9707 0 -9.76953 -0.3125 -14.6152 -0.734375v34.2959h-249.294v-393.184h249.294v32.8887c4.8457 -0.421875 9.69141 -0.734375 14.6152 -0.734375zM153.644 423.067
c-2.31348 0 -4.18945 -1.87598 -4.18945 -4.23633c0 -2.3291 1.87598 -4.17383 4.18945 -4.17383h73.0312c2.3291 0 4.18945 1.86035 4.18945 4.17383c0 2.36035 -1.87598 4.23633 -4.18945 4.23633h-73.0312zM190.159 -46.7109c9.55078 0 17.3203 7.75293 17.3047 17.2725
c0 9.56641 -7.75391 17.2578 -17.3047 17.2578s-17.2725 -7.70703 -17.2725 -17.2578c0 -9.51953 7.72168 -17.2725 17.2725 -17.2725z" />
    <glyph glyph-name="uniF110" unicode="&#xf110;" 
d="M420.985 189.351l-18.668 18.6826c61.0137 61.0273 60.999 160.286 -0.0283203 221.299l18.6963 18.668c71.3223 -71.293 71.3223 -187.356 0 -258.649zM370.007 240.33c43.1973 43.1826 43.1973 113.522 0 156.705l18.667 18.668
c53.5059 -53.4912 53.5059 -140.564 0 -194.084zM355.366 254.97l-18.6816 18.6816c24.8613 24.8037 24.8613 65.2148 0 90.0762l18.668 18.668c35.1553 -35.1123 35.1553 -92.2998 0.0136719 -127.426zM109.711 429.332
c-61.0273 -61.0273 -61.042 -160.301 -0.0283203 -221.299l-18.668 -18.6826c-71.3076 71.293 -71.3076 187.356 0 258.649zM123.297 221.619c-53.5205 53.5195 -53.5205 140.607 0 194.099l18.6826 -18.6826c-43.1973 -43.2256 -43.1973 -113.522 0 -156.705z
M156.619 254.97c-35.127 35.1123 -35.127 92.2705 0.0146484 127.426l18.6816 -18.668c-24.8467 -24.8184 -24.8467 -65.2285 -0.0146484 -90.0762zM363.394 -9.06543c15.1885 0 27.4756 -12.3145 27.4756 -27.46c0 -15.1309 -12.2871 -27.46 -27.4609 -27.46h-214.816
c-15.1592 0 -27.4609 12.2861 -27.4609 27.46c0 15.1455 12.2871 27.46 27.4609 27.46h64.2324l38.5049 278.343c-17.9307 2.30957 -31.8486 17.4697 -31.8486 36.0508c0 20.1396 16.3428 36.498 36.5127 36.498c20.1543 0 36.5127 -16.3438 36.5127 -36.498
c0 -18.5811 -13.918 -33.7412 -31.8643 -36.0508l38.5195 -278.343h64.2324z" />
    <glyph glyph-name="uniF10A" unicode="&#xf10a;" 
d="M237.852 160.158h42.2217l-3.54883 -16.7568h-66.2158c1.62598 6.94043 4.45508 13.3027 8.45703 19.0234c4.0957 6.47168 11.9424 13.2871 23.541 20.4932c10.0977 6.25293 16.71 10.7705 19.8838 13.459c4.8457 4.23633 7.7998 8.84766 8.86328 13.9121
c0.90625 4.08008 0.484375 7.4873 -1.21973 10.1914c-1.65723 2.7207 -4.64258 4.08008 -8.86328 4.08008c-5.76758 0 -10.1602 -2.17285 -13.209 -6.47168c-1.71875 -2.48535 -3.2666 -6.4707 -4.61133 -11.8955h-18.4922c2.04785 8.23828 4.92383 14.8818 8.69141 19.9307
c7.1123 9.67578 17.1484 14.5059 30.0752 14.5059c10.2393 0 17.7891 -2.84473 22.6035 -8.50293c4.87695 -5.69043 6.26855 -13.1934 4.25195 -22.5254c-1.53223 -7.14355 -4.95508 -13.5215 -10.4111 -19.0557c-3.5791 -3.7041 -9.09766 -7.84668 -16.4912 -12.3643
l-8.73828 -5.4082c-5.48633 -3.39258 -9.25391 -5.83105 -11.3643 -7.36328c-1.96875 -1.51562 -3.81348 -3.2666 -5.42383 -5.25195zM290.015 164.223l3.56348 16.6006l48.0205 58.7285h21.3223l-12.8652 -60.4482h10.9424l-3.11035 -14.8496h-10.9424l-4.37695 -20.8213
h-18.6016l4.4082 20.8213l-38.3604 -0.03125v0zM307.256 179.088h24.2295l8.84766 41.7842zM317.198 3.2002v0h0.15625v-32.623c0 -19.0078 -15.5381 -34.5771 -34.5615 -34.5771h-228.301c-19.0234 0 -34.5771 15.5693 -34.5771 34.5771v442.861
c0 19.0234 15.5537 34.5615 34.5771 34.5615h228.285c19.0234 0 34.5615 -15.5381 34.5615 -34.5615l-0.171875 -30.6855c97.6982 -8.08105 174.918 -90.0225 174.918 -189.784c0 -99.7295 -77.2197 -181.687 -174.887 -189.769zM127.914 418.894
c0 -2.31348 1.87598 -4.17383 4.18945 -4.17383h73.0312c2.31348 0 4.20508 1.84473 4.20508 4.17383s-1.86035 4.20508 -4.20508 4.20508h-73.0312c-2.31348 -0.015625 -4.18945 -1.8916 -4.18945 -4.20508zM185.923 -29.4229c0 9.56641 -7.75293 17.2578 -17.3037 17.2578
c-9.51953 0 -17.2578 -7.69141 -17.2578 -17.2578c0 -9.53516 7.73828 -17.2881 17.2578 -17.2881c9.55078 0 17.3037 7.75293 17.3037 17.2881zM445.19 192.984c0 79.2061 -64.4492 143.655 -143.624 143.655c-3.04785 0 -5.7373 -0.28125 -8.73828 -0.453125v46.8955
c0.109375 0 -0.09375 0 0 0.015625v10.082h-248.856v-393.168h249.278v2.79785l-0.09375 0.03125c-101.184 4.39258 -182.202 87.8662 -182.202 190.144c0 1.0791 0.09375 2.17285 0.171875 3.23633h-28.7627l51.2246 51.209l51.1787 -51.1777h-26.7617
c-0.078125 -1.0791 -0.171875 -2.18848 -0.171875 -3.26758c0 -79.2207 64.4492 -143.67 143.655 -143.67c79.2373 -0.015625 143.702 64.4336 143.702 143.67z" />
    <glyph glyph-name="uniF102" unicode="&#xf102;" 
d="M55.5527 370.522c2.83301 1.90625 5.36328 4.41895 8.58398 5.71777c18.8213 7.80859 40.2227 8.5166 60.1572 13.1709c25.5166 5.88574 75.1328 -111.409 43.4102 -121.595c-11.7881 -3.69434 -48.9756 -9.27637 -58.791 -16.6797
c-8.75293 -6.59473 -4.58691 -22.7676 4.04785 -32.9375c22.7676 -26.7646 56.1934 -56.5811 82.6543 -82.7217l0.0341797 0.0166016c0.673828 -0.691406 1.4502 -1.48438 2.1748 -2.20898c0.725586 -0.725586 1.50098 -1.46777 2.22656 -2.17578h-0.0332031
c26.123 -26.4443 55.9238 -59.9209 82.7051 -82.6719c10.1865 -8.65137 26.3428 -12.7832 32.9365 -4.03027c7.38672 9.79883 12.9863 47.002 16.6631 58.791c10.1855 31.7227 127.515 -17.9102 121.612 -43.4443c-4.67188 -19.917 -5.37988 -41.2852 -13.1719 -60.1396
c-1.33203 -3.1875 -3.8623 -5.7168 -5.7334 -8.61816c-42.5 -66.9697 -145.527 -75.5879 -222.279 -10.2539c-29.3105 24.9434 -57.7959 50.915 -85.4883 77.6465l-0.151367 -0.135742c-0.725586 0.742188 -1.38281 1.51855 -2.1416 2.24316
c-0.691406 0.725586 -1.48438 1.41699 -2.24316 2.1416l0.134766 0.152344c-26.748 27.709 -52.6689 56.1426 -77.6455 85.4883c-65.2842 76.7178 -56.6328 179.762 10.3379 222.244zM257.307 379.85c1.11328 11.3496 8.63477 14.0479 16.7305 5.96973l49.7344 -49.7344
l105.827 105.844c8.02734 8.06152 21.249 8.06152 29.3281 0l46.4795 -46.5303c8.07812 -8.07812 8.07812 -21.25 0 -29.3281l-105.811 -105.844l50.7969 -50.7803c8.06152 -8.06055 5.39648 -15.6162 -5.96973 -16.7129l-187.302 -18.7539
c-11.333 -1.12988 -19.6973 7.23535 -18.585 18.5859z" />
    <glyph glyph-name="uniF115" unicode="&#xf115;" 
d="M434.694 161.38l9.51562 -159.842c1.05176 -17.5186 -10.4189 -31.8506 -25.5068 -31.8506h-325.436c-15.0879 0 -26.5742 14.3174 -25.5361 31.8506l9.5293 159.812c34.5029 8.07715 78.5654 29.167 94.5723 55.4004c8.90723 14.5986 9.85547 31.0342 2.51953 45.2773
c-1.85352 3.57227 -5.32129 9.11523 -9.29297 15.3096c0 0.015625 -0.0146484 0.0302734 -0.0146484 0.0302734c-0.119141 0.266602 -0.119141 0.266602 -0.208008 0.473633h177.153c-0.118164 -0.251953 -0.132812 -0.295898 -0.295898 -0.651367
c-2.23828 -5.35059 -2.96484 -9.45605 -2.5498 -12.5537c-0.518555 -0.888672 -1.21484 -2.03027 -1.61523 -2.78613c-7.21777 -14.0498 -6.28418 -30.501 2.65332 -45.085c15.9619 -26.2031 60.0391 -47.3076 94.5117 -55.3857zM202.793 51.3203
c5.61719 0 10.1973 4.58008 10.1973 10.1973s-4.58008 10.1963 -10.1973 10.1963h-30.5605c-5.63184 0 -10.1963 -4.5791 -10.1963 -10.1963s4.56445 -10.1973 10.1963 -10.1973h30.5605zM202.793 90.1807c5.61719 0 10.1973 4.56543 10.1973 10.1826
c0 5.66113 -4.58008 10.1963 -10.1973 10.1963h-30.5605c-5.63184 0 -10.1963 -4.53516 -10.1963 -10.1963c0 -5.61719 4.56445 -10.1826 10.1963 -10.1826h30.5605zM202.793 129.041c5.61719 0 10.1973 4.58008 10.1973 10.1973
c0 5.61621 -4.58008 10.1963 -10.1973 10.1963h-30.5605c-5.63184 0 -10.1963 -4.58008 -10.1963 -10.1963c0 -5.63184 4.56445 -10.1973 10.1963 -10.1973h30.5605zM271.28 51.3203c5.61719 0 10.1816 4.58008 10.2119 10.1973
c0 5.61719 -4.58008 10.1963 -10.1973 10.1963h-30.5605c-5.61719 0 -10.1963 -4.5791 -10.1963 -10.1963s4.56445 -10.1973 10.1963 -10.1973h30.5459zM271.28 90.1807c5.61719 0 10.1816 4.56543 10.2119 10.1826c0 5.66113 -4.58008 10.1963 -10.1973 10.1963h-30.5605
c-5.61719 0 -10.1963 -4.53516 -10.1963 -10.1963c0 -5.61719 4.56445 -10.1826 10.1963 -10.1826h30.5459zM271.28 129.041c5.61719 0 10.1816 4.58008 10.2119 10.1973c0 5.61621 -4.58008 10.1963 -10.1973 10.1963h-30.5605
c-5.61719 0 -10.1963 -4.58008 -10.1963 -10.1963c0 -5.63184 4.56445 -10.1973 10.1963 -10.1973h30.5459zM339.753 51.3203c5.66113 0 10.1963 4.58008 10.1963 10.1973s-4.5498 10.1963 -10.1963 10.1963h-30.5605c-5.61719 0 -10.1826 -4.5791 -10.1826 -10.1963
s4.56543 -10.1973 10.1826 -10.1973h30.5605zM339.753 90.1807c5.66113 0 10.1963 4.56543 10.1963 10.1826c0 5.66113 -4.5498 10.1963 -10.1963 10.1963h-30.5605c-5.61719 0 -10.1826 -4.53516 -10.1826 -10.1963c0 -5.61719 4.56543 -10.1826 10.1826 -10.1826h30.5605z
M339.753 129.041c5.66113 0 10.1963 4.58008 10.1963 10.1973c0 5.61621 -4.5498 10.1963 -10.1963 10.1963h-30.5605c-5.61719 0 -10.1826 -4.58008 -10.1826 -10.1963c0 -5.63184 4.56543 -10.1973 10.1826 -10.1973h30.5605zM509.421 253.64
c-0.636719 -3.20117 -0.666992 -6.53613 -1.92676 -9.57422c-7.36523 -17.8145 -21.1787 -32.5615 -31.3457 -48.9824c-13.1162 -20.957 -124.584 24.2168 -110.223 52.1836c5.41016 10.3447 26.5146 38.9199 28.1006 50.4062
c1.45215 10.2559 -12.123 18.2734 -24.6621 19.2959c-33.0801 2.68262 -75.334 0.251953 -110.444 0.0302734v-0.0302734c-0.933594 0 -1.97168 0.015625 -2.93457 0.015625c-0.948242 0 -1.98633 -0.015625 -2.91992 -0.015625v0.0302734
c-35.1104 0.22168 -77.3643 2.6377 -110.444 -0.0302734c-12.5391 -1.02246 -26.1143 -9.04004 -24.6768 -19.2959c1.60059 -11.4863 22.6904 -40.0615 28.0996 -50.4062c14.3916 -27.9668 -97.0762 -73.1406 -110.192 -52.1836
c-10.1963 16.4209 -23.9805 31.168 -31.3613 48.9824c-1.24414 3.03809 -1.27441 6.37305 -1.91113 9.57422c-16.3623 73.0664 46.6553 147.615 141.554 155.263c36.2363 2.93457 72.5625 4.59473 108.933 5.24707v0.177734
c0.978516 -0.0146484 1.94141 -0.0742188 2.91992 -0.0888672c0.962891 0.0146484 1.94141 0.0742188 2.93457 0.0888672v-0.177734c36.3408 -0.652344 72.666 -2.3125 108.933 -5.24707c94.8828 -7.63281 157.901 -82.2109 141.568 -155.263z" />
    <glyph glyph-name="uniF10E" unicode="&#xf10e;" 
d="M145.768 76.3594v0l31.7842 0.0146484l28.3154 -53.0918h-51.3643c-15.7852 0 -28.6973 12.8975 -28.6973 28.6553v367.379c0 15.7715 12.9121 28.6836 28.6973 28.6836h189.332c15.7852 0 28.6836 -12.9121 28.6836 -28.6836v-268.629h-19.9482v251.81h-206.803
v-326.138zM218.879 427.315c-1.89746 0 -3.4834 -1.54297 -3.4834 -3.48242c0 -1.91113 1.57129 -3.45508 3.4834 -3.45508h60.5801c1.91211 0 3.45508 1.54395 3.45508 3.45508c0 1.93945 -1.54297 3.48242 -3.45508 3.48242h-60.5801zM386.194 111.882h-0.0136719
v-26.7158c0 -0.0566406 -0.0283203 -0.0849609 -0.0283203 -0.141602v-88.0469s0 -60.9912 -68.3535 -60.9775c-42.6152 -0.0136719 -60.6523 19.9062 -66.2588 33.4971c-0.0566406 0.0849609 -42.3877 74.0166 -51.2363 91.0488
c-8.83496 17.0459 1.95312 26.8711 14.7383 23.9121c9.89551 -2.26562 19.1406 -20.4297 34.4316 -36.7256v34.4463v17.0459v36.8379c-31.5293 6.22949 -55.4141 34.0352 -55.4141 67.3623c0 37.9004 30.8359 68.7363 68.7217 68.7363
c37.8867 0 68.7217 -30.8213 68.7217 -68.7363c0 -31.9395 -22.0293 -58.627 -51.6191 -66.2861v-37.8721h4.57324v12.6152v3.55273c0 7.88672 6.39941 14.3281 14.3418 14.3281h1.54297c7.91406 0 14.3281 -6.44141 14.3281 -14.3281v-16.168h5.53516v16.168
c0 7.88672 6.44238 14.3281 14.3418 14.3281h1.55762c7.92871 0 14.3271 -6.44141 14.3271 -14.3281v-3.55273v-12.6152h5.53613v12.6152v3.55273c0 7.88672 6.39941 14.3281 14.3555 14.3281h1.51562c7.94238 0 14.3555 -6.44141 14.3555 -14.3418v-3.53906z
M265.485 207.375c7.99902 0.0146484 14.4414 -6.44141 14.4551 -14.4404v-13.6621c7.5459 5.36523 12.5586 14.1719 12.5586 24.1387c0 16.3662 -13.3232 29.6748 -29.6895 29.6748s-29.6738 -13.3223 -29.6738 -29.6748c0 -11.5527 6.69629 -21.4629 16.3662 -26.376
v15.8994c0 7.99902 6.45605 14.4551 14.4268 14.4551zM201.167 203.425c0 -29.4053 20.7412 -53.9834 48.3203 -60.1133v18.5752c-17.6406 5.67676 -30.5234 22.0576 -30.5234 41.5381c0 24.168 19.665 43.833 43.832 43.833s43.832 -19.665 43.832 -43.833
c0 -18.0928 -11.043 -33.6387 -26.7158 -40.335v-18.5752c25.626 7.47559 44.54 30.8926 44.54 58.9102c0 33.9932 -27.6494 61.6572 -61.6426 61.6572c-33.9922 0 -61.6426 -27.6641 -61.6426 -61.6572z" />
    <glyph glyph-name="uniF105" unicode="&#xf105;" 
d="M415.294 316.003c18.2383 0 33.0684 -14.749 33.0684 -32.8428v-168.542c0 -18.1123 -14.8301 -32.8428 -33.0684 -32.8428h-54.2305v-111.191c0 -19.0273 -15.5635 -34.584 -34.5771 -34.584h-228.265c-19.0273 0 -34.5781 15.5566 -34.5781 34.584v442.832
c0 19.0332 15.5449 34.584 34.5781 34.584h228.265c19.0205 0 34.5771 -15.5508 34.5771 -34.584v-97.4131h54.2305zM175.831 423.073c-2.31055 0 -4.17676 -1.87207 -4.17676 -4.18359c0 -2.29199 1.86621 -4.17676 4.17676 -4.17676h73.0322
c2.30469 0 4.19629 1.88477 4.19629 4.17676c0 2.31152 -1.8916 4.18359 -4.19629 4.18359h-73.0322zM212.345 -46.7334c9.55078 0 17.3037 7.74707 17.3105 17.3174c0 9.55078 -7.75977 17.292 -17.3105 17.292c-9.55176 0 -17.292 -7.74707 -17.292 -17.292
c0 -9.57617 7.75977 -17.3174 17.292 -17.3174zM336.989 -0.0175781v81.7744h-66.0742l-56.4668 -56.46v56.46h-19.9717c-18.2188 0 -33.0439 14.7363 -33.0439 32.8428v168.542c0 18.1123 14.8252 32.8613 33.0439 32.8613h142.513v77.1523h-249.302v-393.173h249.302z
M433.732 114.606v168.541c0 10.0518 -8.28613 18.2314 -18.4385 18.2314h-220.817c-10.165 0 -18.4131 -8.17969 -18.4131 -18.2314v-168.541c0 -10.04 8.26074 -18.2129 18.4131 -18.2129h34.6152v-35.7744l35.7793 35.7744h150.423
c10.1836 0 18.4385 8.16699 18.4385 18.2129zM397.15 249.152c0 -5.00391 -3.79492 -9.04395 -8.47363 -9.04395h-167.132c-4.66602 0 -8.47363 4.04004 -8.47363 9.04395c0 4.97266 3.80762 9.03711 8.47363 9.03711h167.132c4.67188 0 8.47363 -4.06445 8.47363 -9.03711z
M397.15 200.113c0 -5.00977 -3.79492 -9.0625 -8.47363 -9.0625h-167.132c-4.66602 0 -8.47363 4.05273 -8.47363 9.0625c0 4.9668 3.80762 9.01855 8.47363 9.01855h167.132c4.67188 0.00683594 8.47363 -4.0459 8.47363 -9.01855zM397.15 151.075
c0 -4.99805 -3.79492 -9.05664 -8.47363 -9.05664h-167.132c-4.66602 0 -8.47363 4.05859 -8.47363 9.05664c0 4.98535 3.80762 9.02441 8.47363 9.02441h167.132c4.67188 0.00683594 8.47363 -4.05176 8.47363 -9.02441z" />
    <glyph glyph-name="uniF10B" unicode="&#xf10b;" 
d="M493.913 294.896v0l3.09961 0.0126953l-6.71387 -17.9492l-75.4873 -201.447l-1.00781 -2.75586h-18.5635h-82.833v-102.173c0 -19.0273 -15.5576 -34.584 -34.5713 -34.584h-228.271c-19.0264 0 -34.5771 15.5566 -34.5771 34.584v442.832
c0 19.0332 15.5439 34.584 34.5771 34.584h228.271c19.0205 0 34.5713 -15.5449 34.5713 -34.584v-118.52h181.506zM194.983 264.465l-63.5244 -169.537l123.98 103.106zM207.998 278.832l91.8516 -100.87l167.434 100.87h-259.285zM127.175 423.062
c-2.30469 0 -4.1709 -1.87305 -4.1709 -4.18457c0 -2.29199 1.86621 -4.17676 4.1709 -4.17676h73.0322c2.30469 0 4.19629 1.88477 4.19629 4.17676c0 2.31152 -1.8916 4.18457 -4.19629 4.18457h-73.0322zM163.688 -46.7334c9.55078 0 17.3105 7.73535 17.3105 17.3047
c0 9.56348 -7.75977 17.2861 -17.3105 17.2861s-17.292 -7.75977 -17.292 -17.2861c0 -9.57617 7.75977 -17.3047 17.292 -17.3047zM288.332 -0.0302734v0l0.03125 72.7998h-162.754h-18.5381l1.0459 2.7998l38.0469 101.516h-32.0664v16.1582h38.123l7.49023 19.9854
h-57.9883v19.8906h65.4414l8.85547 23.624h-110.547v26.5293h120.479l4.35938 11.6113h3.06836h94.9521v98.2598h-249.295v-393.174h249.295zM144.918 88.79h243.045l-45.0371 99.3867l-50.6914 -30.5566l-27.8135 30.5566zM406.025 94.9219l63.5244 169.55
l-110.259 -66.4307z" />
    <glyph glyph-name="uniF103" unicode="&#xf103;" 
d="M258.37 437.116c137.084 -1.31641 248.232 -113.123 248.232 -250.5c0 -138.181 -112.406 -250.616 -250.603 -250.616s-250.603 112.436 -250.603 250.616h11.6885c0 -131.729 107.169 -238.913 238.914 -238.913s238.914 107.184 238.914 238.913
c0 130.94 -105.882 237.495 -236.544 238.797v-8.48438l-21.4307 15.5361l21.4307 15.5352v-10.8838zM255.137 -31.6562c-119.939 0.467773 -217.424 98.1729 -217.424 218.244c0 120.363 97.8789 218.302 218.287 218.302s218.287 -97.9238 218.287 -218.302h-11.7168
c0 113.912 -92.6572 206.599 -206.57 206.599c-113.942 0 -206.6 -92.6865 -206.6 -206.599c0 -113.605 92.2188 -206.103 205.736 -206.556v8.7041l21.4893 -15.5361l-21.4893 -15.5352v10.6787zM209.993 140.624c-0.307617 0.336914 -0.6875 0.629883 -1.03906 0.951172
l0.0878906 0.0585938c-12.0098 12.4492 -23.6543 25.2344 -34.8887 38.4004c-29.374 34.4795 -25.5127 80.7783 4.59277 99.8691c1.28809 0.848633 2.41406 1.97461 3.8916 2.57422c8.45508 3.52539 18.0664 3.83301 27.0332 5.93945
c11.4834 2.63281 33.7773 -50.0732 19.5146 -54.6523c-5.32422 -1.63867 -22.001 -4.1543 -26.4043 -7.49023c-3.99316 -2.96973 -2.0918 -10.2393 1.77051 -14.8037c10.2539 -12.0391 25.292 -25.4395 37.1709 -37.1709v0.0146484
c0.291992 -0.307617 0.658203 -0.672852 0.979492 -0.995117c0.292969 -0.307617 0.673828 -0.643555 0.995117 -0.951172l-0.0292969 -0.0146484c11.7764 -11.8779 25.1465 -26.9453 37.1709 -37.1562c4.6084 -3.87695 11.8936 -5.76367 14.8047 -1.81348
c3.34961 4.41699 5.86621 21.123 7.54785 26.4189c4.56445 14.2773 57.2568 -8.0459 54.5938 -19.5146c-2.04785 -8.96777 -2.39844 -18.5635 -5.90918 -27.0479c-0.599609 -1.43359 -1.68262 -2.5752 -2.5752 -3.8623
c-4.40332 -6.94824 -10.3125 -12.4199 -17.1152 -16.4863c11.3516 0.117188 22.001 2.80859 31.8027 8.20605c27.0039 14.8633 45.8896 50.0303 45.8896 85.4902c0 84.874 -69.0322 153.921 -153.893 153.921s-153.922 -69.0469 -153.922 -153.921
c0 -84.8457 69.0322 -153.907 153.922 -153.907c5.93945 0 10.7812 -4.85742 10.7812 -10.8105c0 -5.9541 -4.8418 -10.8105 -10.7812 -10.8105c-96.8262 0 -175.572 78.7451 -175.572 175.543c0 96.8115 78.7461 175.571 175.572 175.571
c96.7969 0 175.543 -78.7598 175.543 -175.571c0 -36.3525 -17.6572 -82.7539 -57.0518 -104.463c-22.8496 -12.5371 -61.6738 -21.9434 -112.245 11.79c-24.0049 16.0479 -38.751 33.7334 -51.2285 45.7441l-0.0585938 -0.0732422
c-0.292969 0.335938 -0.628906 0.6875 -0.951172 1.02344z" />
    <glyph glyph-name="uniF10C" unicode="&#xf10c;" 
d="M256.146 152.283c-81.5547 0 -147.91 66.3115 -147.896 147.837c0 81.5977 66.3408 147.88 147.896 147.88c81.5098 0 147.821 -66.2822 147.821 -147.895c0 -81.5107 -66.3115 -147.822 -147.821 -147.822zM320.497 394.796
c-6.23145 -18.6514 -143.053 -46.0801 -176.347 -49.0791c-5.55957 -13.5605 -8.6748 -28.4082 -8.89453 -43.915c2.61816 -43.2568 39.4092 -79.0674 88.3271 -89.1465c-0.161133 0.628906 -0.365234 1.2002 -0.365234 1.8291c0 7.02148 11.7314 12.7412 26.2139 12.7412
s26.2148 -5.71973 26.2148 -12.7412c0 -6.68555 -10.6357 -12.083 -24.123 -12.625h-0.117188c-0.658203 -0.0292969 -1.30176 -0.0878906 -1.97461 -0.0878906c-2.29688 0 -4.47656 0.19043 -6.6123 0.454102c-39.9648 2.28223 -74.8105 20.1729 -95.9336 46.3281
c19.4121 -40.9014 61.0156 -69.3535 109.246 -69.3535c63.0488 0 114.878 48.5664 120.349 110.255c-25.8193 23.6846 -51.126 71.5635 -55.9834 105.341zM367.484 177.635c53.5547 -10.0059 94.1934 -56.8906 94.1641 -113.4v-128.234h-204.756h-1.74121h-204.814v128.234
c0 56.5098 40.5947 103.395 94.2227 113.4c29.2568 -26.6533 67.9785 -43.0518 110.592 -43.3447v0.0878906c0.292969 0 0.570312 -0.0878906 0.833984 -0.0878906c0.322266 0 0.570312 0.0878906 0.907227 0.0878906v-0.0878906
c42.54 0.292969 81.2324 16.6914 110.592 43.3447z" />
    <glyph glyph-name="uniF106" unicode="&#xf106;" 
d="M463.637 191.977c0 -97.4033 -74.7148 -177.598 -169.855 -186.434c-0.87793 4.57227 -1.9248 9.29688 -3.40234 14.377c-0.323242 1.21582 -3.55566 12.0674 -9.43555 25.6279c78.7637 2.44824 142.072 67.0967 142.072 146.46s-63.3086 143.981 -142.072 146.459
c5.89551 13.6377 9.14355 24.5518 9.4668 25.7832c1.44629 5.00195 2.49316 9.69727 3.37109 14.2227c95.1094 -8.89746 169.855 -89.0918 169.855 -186.496zM53.8125 303.865c7.60352 94.8633 82.1797 157.88 155.264 141.595
c3.18652 -0.630859 6.55664 -0.676758 9.55859 -1.92383c17.8096 -7.3418 32.5703 -21.1494 48.9941 -31.3389c20.9336 -13.084 -24.2275 -124.603 -52.2109 -110.18c-10.3281 5.37207 -38.9121 26.4756 -50.3955 28.0762
c-10.2354 1.44629 -18.2861 -12.1445 -19.2861 -24.6738c-2.69434 -33.0947 -0.277344 -75.3623 -0.046875 -110.457h0.0615234c0 -0.923828 -0.0302734 -1.96973 -0.0302734 -2.9248c0 -0.922852 0.0302734 -1.9541 0.0302734 -2.89355h-0.0458984
c-0.230469 -35.1104 -2.64746 -77.3936 0.0458984 -110.472c1.00098 -12.5605 9.05078 -26.1211 19.2871 -24.6895c11.4824 1.58496 40.0518 22.6729 50.3955 28.0908c27.998 14.4082 73.1289 -97.0488 52.2109 -110.194
c-16.4395 -10.1592 -31.2002 -23.9658 -48.9941 -31.3389c-3.00195 -1.24707 -6.37305 -1.27734 -9.55859 -1.92383c-73.084 -16.3623 -147.676 46.6699 -155.279 141.564c-2.94043 36.2178 -4.60254 72.5752 -5.26465 108.933h-0.18457
c0.0302734 0.938477 0.0917969 1.93945 0.0917969 2.89355c0 0.969727 -0.0615234 1.95508 -0.0917969 2.9248h0.18457c0.662109 36.3262 2.35547 72.6826 5.26465 108.933zM188.819 150.74c1.60059 6.84961 4.38672 13.084 8.41992 18.7324
c4.00195 6.37305 11.7295 13.0684 23.1807 20.165c9.91309 6.17188 16.4395 10.6045 19.5645 13.2676c4.74023 4.20215 7.68066 8.74316 8.71191 13.6846c0.908203 4.00195 0.477539 7.37305 -1.16992 10.0352c-1.64648 2.67871 -4.57129 4.01758 -8.74316 4.01758
c-5.67969 0 -10.0205 -2.13965 -12.9912 -6.37207c-1.70801 -2.43262 -3.2168 -6.37305 -4.54004 -11.7139h-18.1943c1.98535 8.1123 4.86426 14.6533 8.54297 19.625c7.00293 9.52832 16.8857 14.2842 29.6152 14.2842c10.0664 0 17.4697 -2.80078 22.2725 -8.37305
c4.75684 -5.60254 6.15723 -12.9609 4.18652 -22.1807c-1.50781 -7.03418 -4.87891 -13.3145 -10.251 -18.7637c-3.57129 -3.64746 -8.95801 -7.71094 -16.2393 -12.1748l-8.61914 -5.31055c-5.3877 -3.33984 -9.11328 -5.74121 -11.1758 -7.25
c-2.03125 -1.50879 -3.84766 -3.2168 -5.44824 -5.1875h41.6055l-3.50977 -16.4854h-65.2178zM337.219 185.896l-3.10938 -14.6689h-10.79l-4.3252 -20.5029h-18.3018l4.3252 20.5029h-37.6963l3.50977 16.3467l47.2695 57.8301h21.0107l-12.6826 -59.5078h10.79z
M284.269 185.896h23.8428l8.71191 41.1445z" />
    <glyph glyph-name="uniF107" unicode="&#xf107;" 
d="M268.773 152.309c-81.5371 0 -147.868 66.3057 -147.868 147.836c0 81.5439 66.3311 147.855 147.868 147.855c81.5244 0 147.854 -66.3115 147.854 -147.855c0 -81.5303 -66.3301 -147.836 -147.854 -147.836zM156.849 345.727
c-5.76172 -14.085 -8.99316 -29.4424 -9.0127 -45.5693c0 -66.6621 54.2305 -120.924 120.925 -120.924c63.0986 0 114.956 48.5752 120.386 110.246c-25.7969 23.6426 -51.1494 71.541 -55.9658 105.361c-6.24414 -18.6387 -143.063 -46.1143 -176.332 -49.1143z
M474.328 64.2148v-128.221h-411.129v128.221c0 21.2871 5.84961 41.1475 15.9141 58.2764c17.1729 -20.0107 41.0654 -31.1836 65.3477 -29.5303c13.4277 0.915039 25.8652 5.81836 35.7422 13.917c1.30273 0.901367 3.71387 2.51074 5.62988 4.88477
c4.74121 5.45508 7.77246 11.3984 10.4785 16.5967c1.12109 2.19238 2.2666 4.40234 3.58203 6.57617c1.62891 2.68652 3.42578 7.1709 2.96875 13.127c20.2295 -8.78027 42.4814 -13.7285 65.917 -13.7285c42.8945 0 81.8945 16.4902 111.354 43.3203
c53.5986 -9.98926 94.1943 -56.9355 94.1943 -113.439zM85.1133 144.405c-7.8291 12.876 -15.2314 25.9844 -22.2832 39.3311h-0.0634766c-0.168945 0.34375 -0.306641 0.713867 -0.475586 1.07031c-0.194336 0.344727 -0.400391 0.695312 -0.588867 1.05859
l0.0439453 0.0439453c-6.53223 13.5781 -12.7139 27.3252 -18.4004 41.3164c-14.8936 36.5254 0.933594 73.8027 31.0576 81.3555c1.30273 0.401367 2.57422 0.983398 3.87109 1.11523c7.97266 0.600586 16.0518 -1.77246 24.0371 -2.47461
c10.1953 -0.919922 14.3232 -50.6416 1.23926 -50.5605c-4.82812 0.0566406 -19.333 2.53027 -23.9307 0.977539c-4.0459 -1.37207 -4.49023 -7.87891 -2.52344 -12.7197c5.17969 -12.7451 13.9727 -27.9268 20.6045 -40.9033l0.0253906 0.0439453
c0.181641 -0.370117 0.337891 -0.733398 0.513672 -1.12793c0.200195 -0.337891 0.394531 -0.726562 0.557617 -1.05859l-0.0126953 -0.0244141c6.48242 -13.002 13.4844 -29.1162 20.6484 -40.8906c2.72461 -4.40918 8.2168 -7.95996 11.75 -5.49902
c3.95117 2.75586 10.5771 15.8447 13.4023 19.8154c7.67773 10.5469 45.2305 -22.2891 39.9258 -31.0576c-4.1709 -6.83301 -7.03906 -14.6611 -12.2881 -20.7178c-0.864258 -1.08984 -2.11621 -1.69043 -3.1748 -2.51074
c-23.9932 -19.7285 -63.3682 -10.3154 -83.9355 23.417z" />
    <glyph glyph-name="uniF109" unicode="&#xf109;" 
d="M363.847 434.232l13.7822 13.7676c52.5508 -52.5508 52.5508 -138.084 0 -190.635l-13.7676 13.7529c44.9561 44.9707 44.9561 118.158 -0.0146484 163.114zM340.039 294.912c31.8574 31.8721 31.8574 83.6689 0 115.527l13.7812 13.7529
c39.4102 -39.4248 39.4102 -103.638 0 -143.062zM329.259 305.707l-13.7959 13.7529c18.333 18.3037 18.333 48.085 0 66.4033l13.7676 13.7666c25.8984 -25.9121 25.8984 -68.0527 0.0283203 -93.9229zM148.139 271.104l-13.7529 -13.7383
c-52.5654 52.5508 -52.5654 138.084 0 190.635l13.7676 -13.7676c-44.9707 -44.9561 -44.9854 -118.144 -0.0146484 -163.129zM158.18 281.145c-39.4238 39.4385 -39.4238 103.638 0 143.062l13.7812 -13.7529c-31.8438 -31.8438 -31.8438 -83.6689 0 -115.498z
M182.756 305.707c-25.8848 25.8701 -25.8848 68.0107 0 93.9375l13.7812 -13.7529c-18.3047 -18.3037 -18.3047 -48.0996 0 -66.4033zM360.035 170.866c2.80176 -3.4707 9.91309 -8.40625 9.85645 -8.43457c0.924805 -1.1377 2.03418 -1.8916 3.2002 -2.28906
l-5.33398 -3.28613l-9.20117 11.9326zM414.678 94.6914c0 -87.666 -71.0264 -158.691 -158.649 -158.691c-87.6514 0 -158.734 71.0254 -158.734 158.691c0 79.332 58.3252 144.896 134.372 156.644l20.8926 64.9102c-13.2129 1.7207 -23.4668 12.8857 -23.4668 26.582
c0 14.833 12.0605 26.9082 26.9365 26.9082c14.877 0 26.9375 -12.0752 26.9375 -26.9082c0 -13.6963 -10.2832 -24.8613 -23.4814 -26.582l20.8926 -64.8955c76.0459 -11.7334 134.301 -77.3262 134.301 -156.658zM151.14 192.938
c1.39355 0.682617 2.74512 1.25195 4.11035 1.63574c0 0 13.2832 1.36523 7.70801 9.69922c-4.12402 -3.55566 -8.0918 -7.2959 -11.8184 -11.335zM172.971 77.3408c0 0 -2.10449 6.96875 -12.7432 6.96875c0 0 -6.35742 6.98242 -12.0889 6.98242
c0 0 -2.07617 19.5273 -12.7432 15.3037c0 0 -1.43652 7.73633 -5.6748 6.9834c0 0 -2.77344 7.69336 -7.75098 5.58887l-5.70312 3.5127s-0.498047 -0.881836 -1.33691 -2.27539c-1.39355 -7.99316 -2.13281 -16.1992 -2.13281 -24.5332
c0 -40.5762 17.0381 -77.1553 44.2451 -103.068c0.0419922 1.22266 0.327148 2.41797 1.06641 3.5127c0 0 2.81641 5.60352 -0.767578 10.4531c0 0 3.58398 4.9209 3.58398 11.2217c0 0 -3.58398 11.0928 5.63184 12.5293c0 0 12.7715 0 6.38574 22.3291
c0 0 -0.697266 6.25781 4.28027 12.5586c0.0292969 0.0419922 4.97852 13.3262 -4.25195 11.9326zM181.532 217.614c-6.38574 -3.83984 -12.416 -8.19238 -18.0762 -12.9707c3.25684 -0.327148 16.7822 -1.32227 17.6641 6.38574zM373.902 159.943
c2.67383 -0.682617 5.60352 0.12793 7.72266 0.995117c-21.6465 41.9414 -63.5312 71.8369 -112.782 76.5586c-11.3496 -11.0938 2.63086 -15.7012 2.63086 -15.7012c4.99219 -3.4707 15.5312 2.81543 15.5312 2.81543c4.32324 -4.86426 -12.0469 -11.918 -12.0469 -11.918
c-9.1875 -0.654297 -16.2695 -5.5752 -16.2695 -5.5752c-4.25293 6.27246 -8.53418 1.43652 -8.53418 1.43652c-3.49805 -4.18164 4.97852 -6.34277 4.97852 -6.34277c5.67383 -1.35156 4.28027 -4.86426 2.07617 -6.91211c-2.07617 -2.07715 -11.2783 0 -11.2783 0
c-4.97754 -2.80176 -1.4502 -12.5723 -1.4502 -12.5723h4.2666c14.1221 -4.13867 14.8906 6.27148 14.8906 6.27148c4.22363 0 5.67383 6.9834 5.67383 6.9834c3.55566 -3.5127 12.0469 2.07617 12.0469 2.07617c0.725586 -2.78711 4.94922 -6.94043 4.94922 -6.94043
c6.38574 -2.09082 7.80762 -4.94922 7.80762 -4.94922c-6.38574 -1.37988 -0.724609 -4.16699 -0.724609 -4.16699c8.56152 3.5127 2.10449 8.37695 2.10449 8.37695c-16.2705 7.67969 -9.1875 9.78418 -9.1875 9.78418c2.83008 -4.8916 14.208 -6.96875 14.208 -6.96875
c1.43652 -9.08789 5.64648 -10.4961 5.64648 -10.4961c4.96289 -2.07617 6.34277 2.10547 6.34277 2.10547c-4.96387 1.37988 -5.6748 5.58887 -5.6748 5.58887c-1.4082 4.19629 4.99219 1.42285 4.99219 1.42285c5.6748 -8.3916 17.7354 -7.69434 17.7354 -7.69434
c7.75098 0.725586 5.63184 -13.2549 5.63184 -13.2549c-8.51953 -5.63281 -24.832 4.19531 -24.832 4.19531c1.46484 -4.93555 -4.93555 -5.58984 -4.93555 -5.58984c-6.39941 7.6377 -16.2979 4.16699 -16.2979 4.16699c2.10449 3.4707 -1.47949 9.05957 -1.47949 9.05957
c-5.63184 1.42285 -14.8057 -1.39355 -14.8057 -1.39355c-7.11133 -2.74512 -20.5791 -3.46973 -20.5791 -3.46973c-6.35742 0 -10.6104 -12.6152 -10.6104 -12.6152c-14.1787 -6.22949 -15.5869 -18.8018 -15.5869 -18.8018
c0 -7.70898 -1.43652 -15.3604 -1.43652 -15.3604c-4.97754 -7.66602 9.1875 -16.0566 9.1875 -16.0566c8.56152 -16.043 19.1572 -9.11621 19.1572 -9.11621c8.51953 -3.44238 26.9648 3.49805 26.9648 3.49805c2.09082 -6.94043 12.0186 -4.89258 12.0186 -4.89258
c3.52637 -2.07617 2.11914 -9.10156 2.11914 -9.10156c-4.96387 -8.33398 4.25195 -16.0566 4.25195 -16.0566c14.165 -16.043 4.90723 -20.2383 4.90723 -20.2383c-9.8418 -9.78516 -3.44238 -18.1338 -3.44238 -18.1338
c7.02637 -15.4023 7.02637 -28.5156 7.02637 -28.5156c24.0918 -3.48438 32.6113 14.5352 32.6113 14.5352c7.7793 0 7.7793 6.96875 7.7793 6.96875c0 8.3916 5.00586 11.833 5.00586 11.833c11.3359 7.69434 9.2168 23.083 9.2168 23.083
c-1.42285 9.05957 2.07617 17.4219 2.07617 17.4219c13.4395 15.3604 12.7568 38.3857 12.7568 38.3857c-5.64551 -2.77344 -9.20117 -0.667969 -9.20117 -0.667969c-12.7432 12.5859 -28.3164 39.8076 -28.3164 39.8076
c14.8906 -6.27148 26.9512 -35.6123 26.9512 -35.6123c8.5332 4.19531 11.292 11.8613 11.292 11.8613c8.19238 7.49512 -0.895508 17.6641 -3.08594 19.8828z" />
    <glyph glyph-name="uniF111" unicode="&#xf111;" 
d="M269.431 71.7266v-0.0146484h23.6973v-97.9541c0 -18.7666 -15.334 -34.0703 -34.0703 -34.0703h-224.987c-18.7666 0 -34.0703 15.3037 -34.0703 34.0703v436.484c0 18.7666 15.3037 34.0703 34.0703 34.0703h225.003c18.7363 0 34.0703 -15.3037 34.0703 -34.0703
v-94.207h-23.7129v74.2412h-245.748v-387.545h245.748v68.9951zM110.561 419.716c-2.27832 0 -4.10742 -1.81445 -4.10742 -4.09277c0 -2.24805 1.8291 -4.12207 4.10742 -4.12207h71.9775c2.27832 0 4.12207 1.87402 4.12207 4.12207
c0 2.27832 -1.84375 4.09277 -4.12207 4.09277h-71.9775zM146.549 -43.2998c9.42871 0 17.0576 7.64453 17.0732 17.0723c0 9.39844 -7.64453 17.043 -17.0732 17.043c-9.39746 0 -17.042 -7.64453 -17.042 -17.043c0 -9.42773 7.64453 -17.0723 17.042 -17.0723z
M380.814 92.5918h-243.813l-44.8623 201.454h274.316l-7.43457 -28.8691h-230.908l32.0322 -143.761h197.512l49.6299 224.702h104.699v-28.8389h-81.541zM217.808 54.2793c0 -14.8691 -12.0811 -26.9355 -26.9053 -26.9355c-14.8691 0 -26.9355 12.0664 -26.9355 26.9355
c0 14.8398 12.0664 26.9062 26.9355 26.9062c14.8535 0 26.9053 -12.0664 26.9053 -26.9062zM358.571 54.2793c0 -14.8691 -12.0664 -26.9355 -26.9355 -26.9355c-14.8398 0 -26.9062 12.0664 -26.9062 26.9355c0 14.8398 12.0664 26.9062 26.9062 26.9062
c14.8691 0 26.9355 -12.0664 26.9355 -26.9062z" />
    <glyph glyph-name="uniF10F" unicode="&#xf10f;" 
d="M508.713 437.878c2.00195 -3.0918 3.20605 -6.81836 3.15723 -10.8379v-0.015625v-17.5107v-65.7754v-36.9883v-65.792v-36.9727v-65.7598v-36.9561v-65.792v-17.5098v-0.0332031c0 -11.0488 -8.93457 -20.0645 -20.0488 -20.0645h-0.0322266h-302.419
c-4.28027 -34.7432 -33.6855 -61.8701 -69.6006 -61.8701c-36.1914 0 -65.7754 27.5508 -69.665 62.7324h-29.9092h-0.0332031c-6.7041 0 -12.5459 3.28711 -16.2402 8.36426c-0.0976562 0.163086 -0.244141 0.292969 -0.374023 0.504883
c-0.0654297 0.0976562 -0.130859 0.244141 -0.228516 0.341797c-2.03418 3.12402 -3.20508 6.86719 -3.20508 10.8867v0.0166016v17.5098v65.792v36.9727v65.7588v36.9893v65.792v36.9883v65.7598v17.5098v0.0322266c0 11.0498 8.9502 20.0488 20.0479 20.0488h0.0332031
h68.6885v0c6.7207 0 12.5947 -3.31934 16.2568 -8.36426c0.146484 -0.146484 0.292969 -0.292969 0.374023 -0.488281c0.0976562 -0.0976562 0.178711 -0.276367 0.260742 -0.390625c2.03418 -3.0918 3.20508 -6.83496 3.20508 -10.8057v-0.0322266v-17.5264v-65.7588
v-36.9893v-65.8086v-36.9883v-65.7598v-36.9727v-65.792v-17.4932v-0.0166016c0 -11.0654 -8.96582 -20.0645 -20.0811 -20.0645v0h-25.1738c3.79102 -27.7295 27.3545 -49.1611 56.0605 -49.1611c28.4131 0 51.7969 20.9922 55.9961 48.25h-24.9629h-0.0332031
c-6.6875 0 -12.5625 3.30371 -16.2236 8.38086c-0.0820312 0.146484 -0.244141 0.292969 -0.407227 0.488281c-0.0654297 0.113281 -0.0976562 0.243164 -0.195312 0.34082c-2.03418 3.1416 -3.23828 6.90039 -3.23828 10.9199v0v17.4932v65.792v36.9893v65.7588v36.957
v65.792v37.0049v65.7754v17.5098v0.0166016c0 11.082 8.9502 20.0811 20.0645 20.0811h0.0488281h340.97h0.0332031c6.7041 0 12.5459 -3.30371 16.2402 -8.36426c0.0488281 -0.163086 0.244141 -0.292969 0.374023 -0.504883
c0.0654297 -0.0810547 0.130859 -0.244141 0.260742 -0.390625zM259.881 144.409v20.0156c0 4.70312 -3.83984 8.54395 -8.5752 8.54395h-47.2246c-4.73535 0 -8.55957 -3.84082 -8.55957 -8.54395v-20.0156c0 -4.73535 3.82422 -8.54297 8.55957 -8.54297h47.2246
c4.73535 0 8.5752 3.80762 8.5752 8.54297zM259.881 212.479v20c0 4.73535 -3.83984 8.57617 -8.5752 8.57617h-47.2246c-4.73535 0 -8.55957 -3.84082 -8.55957 -8.57617v-20c0 -4.73535 3.82422 -8.57617 8.55957 -8.57617h47.2246
c4.73535 0 8.5752 3.84082 8.5752 8.57617zM259.881 280.55v20c0 4.73535 -3.83984 8.57617 -8.5752 8.57617h-47.2246c-4.73535 0 -8.55957 -3.84082 -8.55957 -8.57617v-20c0 -4.70312 3.82422 -8.55957 8.55957 -8.55957h47.2246
c4.73535 0 8.5752 3.85645 8.5752 8.55957zM353.517 144.409v20.0156c0 4.70312 -3.80762 8.54395 -8.57617 8.54395h-47.208c-4.76855 0 -8.55957 -3.84082 -8.55957 -8.54395v-20.0156c0 -4.73535 3.79102 -8.54297 8.55957 -8.54297h47.208
c4.76855 0 8.57617 3.80762 8.57617 8.54297zM353.517 212.479v20c0 4.73535 -3.80762 8.57617 -8.57617 8.57617h-47.208c-4.76855 0 -8.55957 -3.84082 -8.55957 -8.57617v-20c0 -4.73535 3.79102 -8.57617 8.55957 -8.57617h47.208
c4.76855 0 8.57617 3.84082 8.57617 8.57617zM353.517 280.55v20c0 4.73535 -3.80762 8.57617 -8.57617 8.57617h-47.208c-4.76855 0 -8.55957 -3.84082 -8.55957 -8.57617v-20c0 -4.70312 3.79102 -8.55957 8.55957 -8.55957h47.208
c4.76855 0 8.57617 3.85645 8.57617 8.55957zM447.151 144.409v20.0156c0 4.70312 -3.83984 8.54395 -8.6084 8.54395h-47.1758c-4.76758 0 -8.5918 -3.84082 -8.5918 -8.54395v-20.0156c0 -4.73535 3.82422 -8.54297 8.5918 -8.54297h47.1758
c4.76855 0 8.6084 3.80762 8.6084 8.54297zM447.151 212.479v20c0 4.73535 -3.83984 8.57617 -8.6084 8.57617h-47.1758c-4.76758 0 -8.5918 -3.84082 -8.5918 -8.57617v-20c0 -4.73535 3.82422 -8.57617 8.5918 -8.57617h47.1758c4.76855 0 8.6084 3.84082 8.6084 8.57617z
M447.151 280.55v20c0 4.73535 -3.83984 8.57617 -8.6084 8.57617h-47.1758c-4.76758 0 -8.5918 -3.84082 -8.5918 -8.57617v-20c0 -4.70312 3.82422 -8.55957 8.5918 -8.55957h47.1758c4.76855 0 8.6084 3.85645 8.6084 8.55957z" />
    <glyph glyph-name="uniF10D" unicode="&#xf10d;" 
d="M465.72 90.7373l-16.1523 16.1523c52.792 52.792 52.7803 138.693 -0.0244141 191.486l16.1768 16.165c61.7031 -61.6904 61.7031 -162.102 0 -223.804zM437.772 286.604c46.292 -46.292 46.292 -121.628 0 -167.944l-16.1533 16.1895
c37.3691 37.3701 37.3691 98.1963 0 135.59zM408.923 257.78c30.4199 -30.4072 30.4199 -79.876 0.0126953 -110.271l-16.165 16.165c21.5205 21.4717 21.5205 56.4561 0 77.9404zM46.2803 90.7373c-61.7031 61.7021 -61.7031 162.113 0 223.804l16.1768 -16.165
c-52.8047 -52.793 -52.8164 -138.694 -0.0244141 -191.486zM74.2275 118.673c-46.292 46.3037 -46.292 121.64 0 167.932l16.1533 -16.165c-37.3691 -37.3936 -37.3691 -98.2324 0 -135.602zM103.064 147.497c-30.4072 30.4072 -30.4072 79.876 0.0126953 110.271
l16.165 -16.165c-21.5088 -21.4844 -21.5088 -56.4561 -0.0126953 -77.9404zM362.071 349.926v-315.864c0 -13.5479 -11.1016 -24.6494 -24.6611 -24.6494h-162.796c-13.5596 0 -24.6611 11.1016 -24.6611 24.6494v315.864c0 13.5605 11.1016 24.6621 24.6611 24.6621
h162.796c13.5596 0 24.6611 -11.1016 24.6611 -24.6621zM226.969 353.821c0 -1.64355 1.33887 -2.98242 2.99414 -2.98242h52.0742c1.65527 0 2.98242 1.33887 2.98242 2.98242c0 1.65527 -1.32715 2.99414 -2.98242 2.99414h-52.0742
c-1.64355 0 -2.99414 -1.33887 -2.99414 -2.99414zM268.343 34.0615c0 6.8291 -5.52637 12.3428 -12.3428 12.3428s-12.3311 -5.52637 -12.3311 -12.3428c0 -6.80469 5.51465 -12.3184 12.3311 -12.3184s12.3428 5.51367 12.3428 12.3184zM344.908 335.478h-177.804
v-280.418h177.804v280.418z" />
    <glyph glyph-name="uniF116" unicode="&#xf116;" 
d="M475.641 212.752c15.1104 0 27.3789 -12.2324 27.3496 -27.3281l0.0292969 -3.00293c0 -15.0967 -12.2686 -27.3867 -27.3789 -27.3867h-6.75195h-51.0684c-15.1035 0 -27.335 12.2393 -27.335 27.3867v2.96582c0 15.1328 12.2314 27.3652 27.3135 27.3652h6.82422
h51.0176zM475.67 281.021c15.1182 0 27.3496 -12.2676 27.3203 -27.3135v-3.04688c0 -15.1104 -12.2393 -27.3428 -27.335 -27.3428h-6.80273h-44.2734h-6.78809c-15.0811 0 -27.3496 12.2031 -27.3496 27.3428v2.9668c0 15.1475 12.2686 27.3789 27.3867 27.3789h6.78809
v0.0292969h14.9277v112.111l-249.314 0.0361328v-61.2178c23.8799 13.4082 44.7852 25.0049 54.9707 30.2949c32.333 16.7988 50.9736 -3.66113 45.3691 -27.9414c-4.30371 -18.7139 -36.1035 -39.3486 -69.6064 -65.2588
c-6.6123 -5.12207 -18.209 -12.7656 -30.7334 -20.708v-248.372h249.314v18.5166h-21.7305c-15.1035 0 -27.3359 12.2832 -27.3359 27.3496v3.03223c0 15.1035 12.2031 27.3359 27.3135 27.3359h6.8252h44.2725h6.75195c15.1104 0 27.3496 -12.2031 27.3789 -27.3135
l-0.0292969 -2.98145c0.0292969 -15.1328 -12.2393 -27.3721 -27.3721 -27.3721h-6.72949v-0.0292969h-5.27539v-47.9414c0 -18.998 -15.5635 -34.5693 -34.5986 -34.5693h-228.256c-19.0273 0 -34.5908 15.5645 -34.5908 34.5693v39.3047h-41.5479
s-61.415 0.226562 -94.7051 50.5498c-0.34375 0.518555 -0.708984 0.986328 -1.04492 1.49805c-1.40332 2.19922 -2.68164 4.51562 -3.96094 6.91992c-1.10352 1.99414 -2.13379 4.12793 -3.15625 6.29785c-0.957031 2.06055 -1.90723 4.06348 -2.78418 6.2627
c-1.73926 4.43457 -3.28809 9.09668 -4.625 14.0654c-0.387695 1.46875 -0.665039 3.06934 -1.02344 4.60352c-0.993164 4.29688 -1.82617 8.81934 -2.49121 13.5469c-0.255859 1.81934 -0.489258 3.63184 -0.701172 5.51758
c-0.665039 6.43652 -1.14062 13.1006 -1.14062 20.3203c0 80.8369 37.7705 115.07 63.5488 125.68c0.102539 0.0664062 47.5908 27.2549 93.6318 53.2832v94.9834c0 19.0195 15.5635 34.5908 34.5908 34.5908h228.263c19.0352 0 34.5986 -15.5635 34.5986 -34.5908v-132.389
h12.0498zM314.857 -12.1641c-9.51367 0 -17.252 -7.76758 -17.2656 -17.3027c0 -9.56543 7.71582 -17.2959 17.2656 -17.2959c9.58008 0 17.3174 7.70898 17.3174 17.2959c0 9.56445 -7.73047 17.3027 -17.3174 17.3027zM351.414 414.694
c2.29492 0 4.16504 1.87109 4.16504 4.16504c0 2.3457 -1.87012 4.20215 -4.16504 4.20215h-73.04c-2.29492 0 -4.19434 -1.86328 -4.19434 -4.20215c0 -2.30176 1.89941 -4.16504 4.19434 -4.16504h73.04zM475.641 144.482c15.1475 0 27.3496 -12.2686 27.3574 -27.3721
v-2.99512c-0.0371094 -15.1182 -12.2393 -27.3506 -27.3721 -27.3506h-6.7666h-44.2725h-6.78809c-15.1113 0 -27.3506 12.2324 -27.3506 27.3506v2.99512c0 15.1035 12.2686 27.3721 27.3506 27.3721h51.0898h6.75195z" />
    <glyph glyph-name="uniF112" unicode="&#xf112;" 
d="M404.65 -0.870117l-27.8691 27.8691c90.9648 90.9658 90.9648 239.002 0 329.968l27.8525 27.8691c106.325 -106.359 106.325 -279.347 0.0166016 -385.706zM356.488 336.708c79.7695 -79.7695 79.7695 -209.664 0.0341797 -289.416l-27.9033 27.8359
c64.4434 64.4434 64.4434 169.301 0 233.744zM306.79 286.993c52.3779 -52.3604 52.3779 -137.643 0 -190.055l-27.8691 27.8701c37.0342 37 37.0342 97.2969 0 134.298zM33.0752 303.872c7.61133 94.873 82.1592 157.9 155.272 141.534
c3.19141 -0.648438 6.55371 -0.666016 9.57422 -1.92871c17.8008 -7.37305 32.5469 -21.1631 48.9814 -31.3516c20.9414 -13.1074 -24.2178 -124.587 -52.207 -110.199c-10.3418 5.39258 -38.9121 26.5039 -50.3975 28.0918
c-10.2568 1.46777 -18.2783 -12.1182 -19.3027 -24.6621c-2.67969 -33.0752 -0.255859 -75.332 -0.0507812 -110.455h0.0683594c0 -0.921875 -0.0175781 -1.94531 -0.0175781 -2.91797c0 -0.973633 0.0175781 -1.98047 0.0175781 -2.91895h-0.0517578
c-0.204102 -35.123 -2.62793 -77.3799 0.0517578 -110.455c1.02344 -12.5273 9.04492 -26.0957 19.3018 -24.6621c11.4863 1.58789 40.0557 22.6992 50.3984 28.0918c27.9893 14.3877 73.1641 -97.0576 52.207 -110.199
c-16.4355 -10.1719 -31.1816 -23.9443 -48.9814 -31.3516c-3.02148 -1.22852 -6.36621 -1.2627 -9.57422 -1.91113c-73.1143 -16.3496 -147.679 46.6602 -155.273 141.551c-2.93457 36.25 -4.625 72.6016 -5.27344 108.954h-0.1875
c0.0175781 0.955078 0.0849609 1.91113 0.0849609 2.91797c0 0.990234 -0.0673828 1.94531 -0.0849609 2.93555h0.170898c0.648438 36.3516 2.33789 72.6699 5.27344 108.937z" />
    <glyph glyph-name="uniF100" unicode="&#xf100;" 
d="M370.132 448c19.0176 0 34.582 -15.5645 34.582 -34.582v-442.821c0 -19.0469 -15.5645 -34.582 -34.582 -34.582h-228.264c-19.0176 0 -34.582 15.5645 -34.582 34.582v442.821c0 19.0322 15.5645 34.582 34.582 34.582h228.264zM219.487 423.073
c-2.31152 0 -4.18359 -1.87305 -4.18359 -4.19824c0 -2.31152 1.87207 -4.18457 4.18359 -4.18457h73.0254c2.31152 0 4.18359 1.87305 4.18359 4.18457c0 2.3252 -1.87207 4.19824 -4.18359 4.19824h-73.0254zM256 -46.709c9.53809 0 17.291 7.72363 17.291 17.291
c0 9.55273 -7.73828 17.291 -17.291 17.291s-17.291 -7.75293 -17.291 -17.291c0 -9.56738 7.75293 -17.291 17.291 -17.291zM380.65 0v393.157h-249.315v-393.157h249.315zM321.565 194.341c3.11523 0 5.70508 -2.5752 5.67578 -5.70508v-79.8428
c0 -3.11621 -2.57422 -5.70508 -5.71973 -5.70508h-131.131c-3.12988 0 -5.70508 2.58887 -5.70508 5.70508v79.8281c0 3.14453 2.5752 5.71973 5.70508 5.71973h14.2627v39.9795h0.0146484c0.219727 28.1455 23.084 50.9072 51.3027 50.9072
s51.083 -22.7617 51.3027 -50.9072h0.0146484v-39.9795h14.2773zM266.723 134.29l-6.91895 20.085c4.40332 1.58008 7.54785 5.73438 7.54785 10.6641c0 6.27637 -5.09082 11.3818 -11.3662 11.3818s-11.3662 -5.09082 -11.3662 -11.3818
c0 -4.91504 3.14453 -9.08398 7.54785 -10.6641l-6.9043 -20.085h21.46zM287.378 194.341v0v39.9795v-0.161133c-0.145508 17.1455 -14.2041 31.1152 -31.3633 31.1152s-31.2178 -13.9551 -31.3486 -31.1152l-0.0146484 0.161133v-39.9795h62.7266z" />
  </font>
</defs></svg>
