<?xml version="1.0" encoding="iso-8859-1"?>
<!-- Generator: Adobe Illustrator 19.0.0, SVG Export Plug-In . SVG Version: 6.00 Build 0)  -->
<svg version="1.1" id="Capa_1" xmlns="http://www.w3.org/2000/svg" xmlns:xlink="http://www.w3.org/1999/xlink" x="0px" y="0px"
	 viewBox="0 0 512 512" style="enable-background:new 0 0 512 512;" xml:space="preserve">
<path style="fill:#17ACE8;" d="M211,0H76C51.186,0,31,20.186,31,45v75l30,30h150l30-30V30L211,0z"/>
<path style="fill:#1689FC;" d="M436,0H211v150h240l30-30V45C481,20.186,460.814,0,436,0z"/>
<path style="fill:#136EF1;" d="M436,0H256v150h195l30-30V45C481,20.186,460.814,0,436,0z"/>
<path style="fill:#E1E4FB;" d="M481,120.044V466c0,24.899-20.099,46-45,46H76c-24.901,0-45-21.101-45-46V120.044H481z"/>
<path style="fill:#C5C9F7;" d="M481,120.044V466c0,24.899-20.099,46-45,46H256V120.044H481z"/>
<path style="fill:#A8AFF1;" d="M256,180c-74.399,0-135,60.599-135,135c0,74.399,60.601,136,135,136s135-61.601,135-136
	C391,240.599,330.399,180,256,180z"/>
<path style="fill:#97A1ED;" d="M391,315c0,74.399-60.601,136-135,136V180C330.399,180,391,240.599,391,315z"/>
<path style="fill:#FFCC33;" d="M376,90h-60c-8.291,0-15-6.709-15-15s6.709-15,15-15h60c8.291,0,15,6.709,15,15S384.291,90,376,90z"
	/>
<circle style="fill:#32D736;" cx="166" cy="75" r="15"/>
<path style="fill:#17ACE8;" d="M353.5,276.299L321.7,311.1h-150l-10.499-40.201C177.7,234.899,213.999,210,256,210
	C300.099,210,337.899,237.599,353.5,276.299z"/>
<path style="fill:#1689FC;" d="M353.5,276.299L321.7,311.1H256V210C300.099,210,337.899,237.599,353.5,276.299z"/>
<path style="fill:#1DE8F1;" d="M361,315c0,0.899-0.3,1.8-0.3,2.699C359.2,374.399,313.001,421,256,421c-57.9,0-105-48.1-105-106
	c0-5.4,0.901-10.501,1.5-15.601c1.5-9.901,4.501-19.501,8.701-28.5c10.8,3.6,21.299,9.3,30.599,18.001
	c19.801,17.999,43.801,19.799,64.2,4.499c2.1-1.199,3.9-2.699,5.7-4.499c27.001-24.6,61.8-28.801,91.8-12.601
	C358.299,288.3,361,301.199,361,315z"/>
<path style="fill:#1BD9DE;" d="M361,315c0,0.899-0.3,1.8-0.3,2.699C359.2,374.399,313.001,421,256,421V293.399
	c2.1-1.199,3.9-2.699,5.7-4.499c27.001-24.6,61.8-28.801,91.8-12.601C358.299,288.3,361,301.199,361,315z"/>
<circle style="fill:#FD003A;" cx="106" cy="75" r="15"/>
<g>
</g>
<g>
</g>
<g>
</g>
<g>
</g>
<g>
</g>
<g>
</g>
<g>
</g>
<g>
</g>
<g>
</g>
<g>
</g>
<g>
</g>
<g>
</g>
<g>
</g>
<g>
</g>
<g>
</g>
</svg>
